Key,FieldName,IsRequired
kLEARNER,LEARNER,true
kCOURSE,COURSE,true
kCOURSE_VERSION,COURSE_VERSION,true
kOFFERING_START_DATE,OFFERING_START_DATE,false
kEND_DATE,END_DATE,false
kSTART_DATE,START_DATE,false
kCOMPLETION_DATE,COMPLETION_DATE,true
kSTART_TIME,START_TIME,false
kEND_TIME,END_TIME,false
kDURATION,DURATION,false
kDELIVERY_TYPE,DELIVERY_TYPE,false
kLOCATION,LOCATION,false
kMARK_COMPLETED_BY,MARK_COMPLETED_BY,false
kSCORE,GRADE,SCORE,GRADE,false
kCOMPLETION_STATUS,COMPLETION_STATUS,false
kCUSTOM0,CUSTOM0,false
kCUSTOM1,CUSTOM1,false
kCUSTOM2,CUSTOM2,false
kCUSTOM3,CUSTOM3,false
kCUSTOM4,CUSTOM4,false
kCUSTOM5,CUSTOM5,false
kCUSTOM6,CUSTOM6,false
kCUSTOM7,CUSTOM7,false
kCUSTOM8,CUSTOM8,false
kCUSTOM9,CUSTOM9,false
kCREATE_ADHOC_COURSE,CREATE_ADHOC_COURSE,true
kOFFERING_TEMPLATE_NO,OFFERING_TEMPLATE_NO,true
kCOURSE_TITLE,COURSE_TITLE,true
kCOURSE_DESCRIPTION,COURSE_DESCRIPTION,false
kCOURSE_DESCRIPTION_2,COURSE_DESCRIPTION_2,false
kSOURCE_USER,SOURCE_USER,false
kCOURSE_CUSTOM0,COURSE_CUSTOM0,false
kCOURSE_CUSTOM1,COURSE_CUSTOM1,false
kCOURSE_CUSTOM2,COURSE_CUSTOM2,false
kCOURSE_CUSTOM3,COURSE_CUSTOM3,false
kCOURSE_CUSTOM4,COURSE_CUSTOM4,false
kCOURSE_CUSTOM5,COURSE_CUSTOM5,false
kCOURSE_CUSTOM6,COURSE_CUSTOM6,false
kCOURSE_CUSTOM7,COURSE_CUSTOM7,false
kCOURSE_CUSTOM8,COURSE_CUSTOM8,false
kCOURSE_CUSTOM9,COURSE_CUSTOM9,false
kCOURSE_CUSTOM10,COURSE_CUSTOM10,false
kCOURSE_CUSTOM11,COURSE_CUSTOM11,false
kCOURSE_CUSTOM12,COURSE_CUSTOM12,false
kCOURSE_CUSTOM13,COURSE_CUSTOM13,false
kCOURSE_CUSTOM14,COURSE_CUSTOM14,false
kCOURSE_EXCUSTOM1,COURSE_EXCUSTOM1,false
kCOURSE_EXCUSTOM2,COURSE_EXCUSTOM2,false
kCOURSE_EXCUSTOM3,COURSE_EXCUSTOM3,false
kCOURSE_EXCUSTOM4,COURSE_EXCUSTOM4,false
kCOURSE_EXCUSTOM5,COURSE_EXCUSTOM5,false
kCOURSE_EXCUSTOM6,COURSE_EXCUSTOM6,false
kCOURSE_EXCUSTOM7,COURSE_EXCUSTOM7,false
kCOURSE_EXCUSTOM8,COURSE_EXCUSTOM8,false
kCOURSE_EXCUSTOM9,COURSE_EXCUSTOM9,false
kCOURSE_EXCUSTOM10,COURSE_EXCUSTOM10,false
kFOS1,FOS1,false
kFOS_CREDIT1,FOS_CREDIT1,false
kFOS2,FOS2,false
kFOS_CREDIT2,FOS_CREDIT2,false
kSKILL1,SKILL1,false
kSKILL_LEVEL1,SKILL_LEVEL1,false
kSKILL2,SKILL2,false
kSKILL_LEVEL2,SKILL_LEVEL2,false
