Key,FieldName,IsRequired
kID,ID,false
kLEARNER,LEARNER,false
kOFFERING,OFFERING,false
kSESSION_NUMBER,SESSION_NUMBER,false
kDURATION,DURATION,false
kALL_SESSIONS,ALL_SESSIONS,false
kALL_LEARNERS,ALL_LEARNERS,false
