Key,FieldName,IsRequired
kDELIVERY,DELIVERY,false
kCOURSE,COURSE,false
kDEL_MODE_ID,DEL_MODE_ID,true
kCOURSE_VERSION,COURSE_VERSION,false
kCSR,CSR,false
kPRICE,PRICE,false
kCURRENCY,CURRENCY,false
kCURRENCY_PREF,CURRENCY_PREF,false
kMAX_ENROLL,MAX_ENROLL,false
kMIN_ENROLL,MIN_ENROLL,false
kMAX_WAITLIST,MAX_WAITLIST,false
kDOMAIN,DOMAIN,false
kDURATION,DURATION,false
kDESCRIPTION,DESCRIPTION,false
kDISP_WEB,DISP_WEB,false
kDISP_CALL_CENTER,DISP_CALL_CENTER,false
kTRAINING_UNITS,TRAINING_UNITS,false
kAVAIL_FROM,AVAIL_FROM,false
kDISC_FROM,DISC_FROM,false
kVENDOR,VENDOR,false
kCUSTOM0,CUSTOM0,false
kCUSTOM1,CUSTOM1,false
kCUSTOM2,CUSTOM2,false
kCUSTOM3,CUSTOM3,false
kCUSTOM4,CUSTOM4,false
kCUSTOM5,CUSTOM5,false
kCUSTOM6,CUSTOM6,false
kCUSTOM7,CUSTOM7,false
kCUSTOM8,CUSTOM8,false
kCUSTOM9,CUSTOM9,false
