Key,FieldName,IsRequired
kID,ID,false
kNAME,NAME,false
kINVENTORY_ID,INVENTORY_ID,true
kUNIT_COST,UNIT_COST,false
kLIST_PRICE,LIST_PRICE,false
kTRAINING_UNITS,TRAINING_UNITS,false
kCATEGORY,CATEGORY,false
kQUANTITY,QUANTITY,false
kVENDOR,VENDOR,false
kMANUFACTURER,MANUFACTURER,false
kDESCRIPTION,DESCRIPTION,false
kAVAIL_FROM,AVAIL_FROM,false
kDISC_FROM,DISC_FROM,false
kDOMAIN,DOMAIN,false
kCUSTOM0,CUSTOM0,false
kCUSTOM1,CUSTOM1,false
kCUSTOM2,CUSTOM2,false
kCUSTOM3,CUSTOM3,false
kCUSTOM4,CUSTOM4,false
kCUSTOM5,CUSTOM5,false
kCUSTOM6,CUSTOM6,false
kCUSTOM7,CUSTOM7,false
kCUSTOM8,CUSTOM8,false
kCUSTOM9,CUSTOM9,false
kRATE1,RATE1,false
kCURRENCY1,CURRENCY1,false
kRATE2,RATE2,false
kCURRENCY2,CURRENCY2,false
kATTACHMENT_NAME1,ATTACHMENT_NAME1,false
kATTACHMENT_TYPE1,ATTACHMENT_TYPE1,false
kATTACHMENT_URL1,ATTACHMENT_URL1,false
kATTACHMENT_CATEGORY1,ATTACHMENT_CATEGORY1,false
kATTACHMENT_LOCALE1,ATTACHMENT_LOCALE1,false
kATTACHMENT_IS_PRIVATE1,ATTACHMENT_IS_PRIVATE1,false
kATTACHMENT_NAME2,ATTACHMENT_NAME2,false
kATTACHMENT_TYPE2,ATTACHMENT_TYPE2,false
kATTACHMENT_URL2,ATTACHMENT_URL2,false
kATTACHMENT_CATEGORY2,ATTACHMENT_CATEGORY2,false
kATTACHMENT_LOCALE2,ATTACHMENT_LOCALE2,false
kATTACHMENT_IS_PRIVATE2,ATTACHMENT_IS_PRIVATE2,false
kNOTES_CATEGORY1,NOTES_CATEGORY1,false
kNOTES1,NOTES1,false
kNOTES_CATEGORY2,NOTES_CATEGORY2,false
kNOTES2,NOTES2,false
kTASK_SUBJECT1,TASK_SUBJECT1,false
kTASK_ASSIGNED_TO1,TASK_ASSIGNED_TO1,false
kTASK_TYPE1,TASK_TYPE1,false
kTASK_DUE_DATE1,TASK_DUE_DATE1,false
kTASK_START_DATE1,TASK_START_DATE1,
kTASK_DONE_BY1,TASK_DONE_BY1,false
kTASK_DONE_DATE1,TASK_DONE_DATE1,false
kTASK_TIMEZONE1,TASK_TIMEZONE1,false
