Key,FieldName,IsRequired
kNAME,NAME,false
kDOMAIN,DOMAIN,false
kTYPE,TYPE,false
kNO_OF_WEEKS,NO_OF_WEEKS,false
kSESSION_WEEK1,SESSION_WEEK1,false
kSESSION_DAY1,SESSION_DAY1,false
kSTART_TIME1,START_TIME1,false
kEND_TIME1,END_TIME1,false

