Key,FieldName,IsRequired
kID,ID,false
kCONTENTTITLE,CONTENTTITLE,false
kCONTENTFORMAT,CONTENTFORMAT,false
kSPLIT,SPLIT,false
kPLAYERTEMPLATE,PLAYERTEMPLATE,false
kZIPFILENAME,ZIPFILENAME,false
kCSFILESTITLE,CSFILESTITLE,false
kCSFILESRELATIVEPATH,CSFILESRELATIVEPATH,false
kCREATEWBTCOURSE,CREATEWBTCOURSE,false
kMOBILECOMPATIBILITY,MOBILECOMPATIBILITY,false
kEXPIRATIONDATE,EXPIRATIONDATE,false
kCONTENTFOLDER,CONTENTFOLDER,false
kCONTENTTYPE,CONTENTTYPE,false
kEXTERNALID,EXTERNALID,false
kAVAILABLEOFFLINE,AVAILABLEOFFLINE,false
kVERSION,VERSION,false
kCONTENTPROVIDER,CONTENTPROVIDER,false
kDELIVERYVENDOR,DELIVERYVENDOR,false
kSECURECONTEXT,SECURECONTEXT,false
kCONTENTSERVER,CONTENTSERVER,false
kLOCATIONORURL,LOCATIONORURL,false
kLAUNCHURL,LAUNCHURL,false
kCONTENTDESCRIPTION,CONTENTDESCRIPTION,false
kOWNER,OWNER,false
kSUREVALMRA,SUREVALMRA,false
kISSCORING,ISSCORING,false
kESIGNATURE,ESIGNATURE,false
kUSEAICCBRIDGE,USEAICCBRIDGE,false
kISSECURE,ISSECURE,false
kAUTHOR,AUTHOR,false
kLANGUAGE,LANGUAGE,false
kKEYWORDS,KEYWORDS,false
kCustom0,Custom0,false
kCustom1,Custom1,false
kCustom2,Custom2,false
kCustom3,Custom3,false
kCustom4,Custom4,false
kCustom5,Custom5,false
kCustom6,Custom6,false
kCustom7,Custom7,false
kCustom8,Custom8,false
kCustom9,Custom9,false

