Key,FieldName,IsRequired
kID,ID,true
kNAME,NAME,false
kINSTRUCTIONS,INSTRUCTIONS,false
kDUE_DAYS,DUE_DAYS,false
kRATING,RATING,false
kTYPE,TYPE,false
kEVALUATOR,EVALUATOR,false
kEVALUATORTYPE,EVALUATORTYPE,false
kCUSTOM0,CUSTOM0,false
kCUSTOM1,CUSTOM0,false
kCUSTOM2,CUSTOM0,false
kCUSTOM3,CUSTOM0,false
kCUSTOM4,CUSTOM0,false
kCUSTOM5,CUSTOM0,false
kCUSTOM6,CUSTOM0,false
kCUSTOM7,CUSTOM0,false
kCUSTOM8,CUSTOM0,false
kCUSTOM9,CUSTOM0,false
kSECTION_NAME,SECTION_NAME,false
kSECTION_SEQUENCE,SECTION_SEQUENCE,false
kITEM_NAME,ITEM_NAME,false
kITEM_DESCRIPTION,ITEM_DESCRIPTION,false
kITEM_SECTION_SEQUENCE,ITEM_SECTION_SEQUENCE,false
kITEM_SEQUENCE,ITEM_SEQUENCE,false