Key,FieldName,IsRequired
kID,ID,false
kEQUIP_NO,EQUIP_NO,true
kCATEGORY,CATEGORY,false
kLOCATION,LOCATION,false
kSTATUS,STATUS,false
kADMINISTRATOR,ADMINISTRATOR,false
kSERIAL_NO,SERIAL_NO,false
kVENDOR,VENDOR,false
kMANUFACTURER,MANUFACTURER,false
kDESCRIPTION,DESCRIPTION,false
kINT_ORGANIZATION,INT_ORGANIZATION,false
kDOMAIN,DOMAIN,false
kCUSTOM0,CUSTOM0,false
kCUSTOM1,CUSTOM1,false
kCUSTOM2,CUSTOM2,false
kCUSTOM3,CUSTOM3,false
kCUSTOM4,CUSTOM4,false
kCUSTOM5,CUSTOM5,false
kCUSTOM6,CUSTOM6,false
kCUSTOM7,CUSTOM7,false
kCUSTOM8,CUSTOM8,false
kCUSTOM9,CUSTOM9,false
kRATE1,RATE1,false
kRATE_CURRENCY1,RATE_CURRENCY1,false
kEXCUSTOM1,EXCUSTOM1,false
kATTACHMENT_NAME1,ATTACHMENT_NAME1,false
kATTACHMENT_TYPE1,ATTACHMENT_TYPE1,false
kATTACHMENT_URL1,ATTACHMENT_URL1,false
kATTACHMENT_CATEGORY1,ATTACHMENT_CATEGORY1,false
kATTACHMENT_LOCALE1,ATTACHMENT_LOCALE1,false
kATTACHMENT_IS_PRIVATE1,ATTACHMENT_IS_PRIVATE1,false
kNOTES_CATEGORY1,NOTES_CATEGORY1,false
kNOTES1,NOTES1,false
