Key,FieldName,IsRequired
kID,ID,false
kFACILITY_NO,FACILITY_NO,true
kNAME,NAME,false
kADMINISTRATOR,ADMINISTRATOR,false
kCONTACT_PHONE,CONTACT_PHONE,false
kCONTACT_FAX,CONTACT_FAX,false
kCONTACT_EMAIL,CONTACT_EMAIL,false
kADDRESS1,ADDRESS1,false
kADDRESS2,ADDRESS2,false
kCITY,CITY,false
kSTATE,STATE,false
kZIP,ZIP,false
kCOUNTRY,COUNTRY,false
kCORPORATE_NO,CORPORATE_NO,false
kDISABLED,DISABLED,false
kLOCATION,LOCATION,false
kDOMAIN,DOMAIN,false
kCUSTOM0,CUSTOM0,false
kCUSTOM1,CUSTOM1,false
kCUSTOM2,CUSTOM2,false
kCUSTOM3,CUSTOM3,false
kCUSTOM4,CUSTOM4,false
kCUSTOM5,CUSTOM5,false
kCUSTOM6,CUSTOM6,false
kCUSTOM7,CUSTOM7,false
kCUSTOM8,CUSTOM8,false
kCUSTOM9,CUSTOM9,false
kOWNER1,OWNER1,false
kEXCUSTOM1,EXCUSTOM1,false
kATTACHMENT_NAME1,ATTACHMENT_NAME1,false
kATTACHMENT_TYPE1,ATTACHMENT_TYPE1,false
kATTACHMENT_URL1,ATTACHMENT_URL1,false
kATTACHMENT_CATEGORY1,ATTACHMENT_CATEGORY1,false
kATTACHMENT_LOCALE1,ATTACHMENT_LOCALE1,false
kATTACHMENT_IS_PRIVATE1,ATTACHMENT_IS_PRIVATE1,false
kNOTES_CATEGORY1,NOTES_CATEGORY1,false
kNOTES1,NOTES1,false
kNOTES_CATEGORY1,NOTES_CATEGORY1,false
kNOTES1,NOTES1,false
