Key,FieldName,IsRequired
kID,ID,false
kNAME,NAME,false
kOWNER,OWNER,false
kOWNER_TYPE,OWNER_TYPE,false
kAVAIL_FROM,AVAIL_FROM,false
kNEW_AVAIL_FROM,NEW_AVAIL_FROM,false
kDISC_FROM,DISC_FROM,false
kDOMAIN,DOMAIN,false
kCOURSE1,COURSE1,false
kCOURSE_VERSION1,COURSE_VERSION1,false
kCOURSE_CURRENCY1,COURSE_CURRENCY1,false
kCOURSE_PRICE1,COURSE_PRICE1,false
kCOURSE2,COURSE2,false
kCOURSE_VERSION2,COURSE_VERSION2,false
kCOURSE_CURRENCY2,COURSE_CURRENCY2,false
kCOURSE_PRICE2,COURSE_PRICE2,false
kPACKAGE,PACKAGE,false
kPACKAGE_CURRENCY,PACKAGE_CURRENCY,false
kPACKAGE_PRICE,PACKAGE_PRICE,false
kTRAINING_UNIT,TRAINING_UNIT,false
kTU_PRICE,TU_CURRENCY,TU_PRICE,TU_CURRENCY,false

