Key,FieldName,IsRequired
kID,ID,false
kCOMPANY,COMPANY,false
kTRAINING_UNIT,TRAINING_UNIT,false
kNO_OF_UNITS,NO_OF_UNITS,false
kPAYMENT_TYPE,PAYMENT_TYPE,false
kACK_NO,ACK_NO,false
kCONTACT,CONTACT,false
kCURRENCY,CURRENCY,false
kPO_NUMBER1,PO_NUMBER1,false
kPO_AMOUNT1,PO_AMOUNT1,false
kPO_NUMBER2,PO_NUMBER2,false
kPO_AMOUNT2,PO_AMOUNT2,false
