Key,FieldName,IsRequired
kID,ID,false
kNAME,NAME,true
kAVAIL_FROM,AVAIL_FROM,false
kDISC_FROM,DISC_FROM,false
kVALID_TILL_DAYS,VALID_TILL_DAYS,false
kCURRENCY,CURRENCY,false
kPRICE,PRICE,false
kMULTICURRENCY_PREF,MULTICURRENCY_PREF,false
kDOMAIN,DOMAIN,false
kCUSTOM0,CUSTOM0,false
kCUSTOM1,CUSTOM1,false
kCUSTOM2,CUSTOM2,false
kCUSTOM3,CUSTOM3,false
kCUSTOM4,CUSTOM4,false
kCUSTOM5,CUSTOM5,false
kCUSTOM6,CUSTOM6,false
kCUSTOM7,CUSTOM7,false
kCUSTOM8,CUSTOM8,false
kCUSTOM9,CUSTOM9,false
kLOW_VAL1,LOW_VAL1,false
kHIGH_VAL1,HIGH_VAL1,false
kDISCOUNT1,DISCOUNT1,false
kLOW_VAL2,LOW_VAL2,false
kHIGH_VAL2,HIGH_VAL2,false
kDISCOUNT2,DISCOUNT2,false
